[Info]
Version 1
Dimension 2
NumNodes 1001
Num3DElements 0
Num2DElements 900
Num1DElements 0
NumNodeBC 208
NumSaveNodes 0
NumSaveElements 0
Num 2d-line      : 0
Num 2d-line,quad : 0
Num 3d-line      : 0
Num 3d-line,quad : 0
Num triangle     : 0
Num triangle,quad: 0
Num quadr        : 900
Num quadr,quad   : 0
Num tetra        : 0
Num tetra,quad   : 0
Num brick        : 0
Num brick,quad   : 0
Num pyramid      : 0
Num pyramid,quad : 0
Num wedge        : 0
Num wedge,quad   : 0

[Nodes]
#NodeNr x-coord y-coord z-coord
1  0.0  0.0  0.0
2  10.0  0.0  0.0
3  20.0  0.0  0.0
4  30.0  0.0  0.0
5  40.0  0.0  0.0
6  50.0  0.0  0.0
7  60.0  0.0  0.0
8  70.0  0.0  0.0
9  80.0  0.0  0.0
10  90.0  0.0  0.0
11  100.0  0.0  0.0
12  0.0  10.0  0.0
13  10.0  10.0  0.0
14  20.0  10.0  0.0
15  30.0  10.0  0.0
16  40.0  10.0  0.0
17  50.0  10.0  0.0
18  60.0  10.0  0.0
19  70.0  10.0  0.0
20  80.0  10.0  0.0
21  90.0  10.0  0.0
22  100.0  10.0  0.0
23  0.0  20.0  0.0
24  10.0  20.0  0.0
25  20.0  20.0  0.0
26  30.0  20.0  0.0
27  40.0  20.0  0.0
28  50.0  20.0  0.0
29  60.0  20.0  0.0
30  70.0  20.0  0.0
31  80.0  20.0  0.0
32  90.0  20.0  0.0
33  100.0  20.0  0.0
34  0.0  30.0  0.0
35  10.0  30.0  0.0
36  20.0  30.0  0.0
37  30.0  30.0  0.0
38  40.0  30.0  0.0
39  50.0  30.0  0.0
40  60.0  30.0  0.0
41  70.0  30.0  0.0
42  80.0  30.0  0.0
43  90.0  30.0  0.0
44  100.0  30.0  0.0
45  0.0  40.0  0.0
46  10.0  40.0  0.0
47  20.0  40.0  0.0
48  30.0  40.0  0.0
49  40.0  40.0  0.0
50  50.0  40.0  0.0
51  60.0  40.0  0.0
52  70.0  40.0  0.0
53  80.0  40.0  0.0
54  90.0  40.0  0.0
55  100.0  40.0  0.0
56  0.0  50.0  0.0
57  10.0  50.0  0.0
58  20.0  50.0  0.0
59  30.0  50.0  0.0
60  40.0  50.0  0.0
61  50.0  50.0  0.0
62  60.0  50.0  0.0
63  70.0  50.0  0.0
64  80.0  50.0  0.0
65  90.0  50.0  0.0
66  100.0  50.0  0.0
67  0.0  60.0  0.0
68  10.0  60.0  0.0
69  20.0  60.0  0.0
70  30.0  60.0  0.0
71  40.0  60.0  0.0
72  50.0  60.0  0.0
73  60.0  60.0  0.0
74  70.0  60.0  0.0
75  80.0  60.0  0.0
76  90.0  60.0  0.0
77  100.0  60.0  0.0
78  0.0  70.0  0.0
79  10.0  70.0  0.0
80  20.0  70.0  0.0
81  30.0  70.0  0.0
82  40.0  70.0  0.0
83  50.0  70.0  0.0
84  60.0  70.0  0.0
85  70.0  70.0  0.0
86  80.0  70.0  0.0
87  90.0  70.0  0.0
88  100.0  70.0  0.0
89  0.0  80.0  0.0
90  10.0  80.0  0.0
91  20.0  80.0  0.0
92  30.0  80.0  0.0
93  40.0  80.0  0.0
94  50.0  80.0  0.0
95  60.0  80.0  0.0
96  70.0  80.0  0.0
97  80.0  80.0  0.0
98  90.0  80.0  0.0
99  100.0  80.0  0.0
100  0.0  90.0  0.0
101  10.0  90.0  0.0
102  20.0  90.0  0.0
103  30.0  90.0  0.0
104  40.0  90.0  0.0
105  50.0  90.0  0.0
106  60.0  90.0  0.0
107  70.0  90.0  0.0
108  80.0  90.0  0.0
109  90.0  90.0  0.0
110  100.0  90.0  0.0
111  0.0  100.0  0.0
112  10.0  100.0  0.0
113  20.0  100.0  0.0
114  30.0  100.0  0.0
115  40.0  100.0  0.0
116  50.0  100.0  0.0
117  60.0  100.0  0.0
118  70.0  100.0  0.0
119  80.0  100.0  0.0
120  90.0  100.0  0.0
121  100.0  100.0  0.0
122  0.0  110.0  0.0
123  10.0  110.0  0.0
124  20.0  110.0  0.0
125  30.0  110.0  0.0
126  40.0  110.0  0.0
127  50.0  110.0  0.0
128  60.0  110.0  0.0
129  70.0  110.0  0.0
130  80.0  110.0  0.0
131  90.0  110.0  0.0
132  100.0  110.0  0.0
133  0.0  120.0  0.0
134  10.0  120.0  0.0
135  20.0  120.0  0.0
136  30.0  120.0  0.0
137  40.0  120.0  0.0
138  50.0  120.0  0.0
139  60.0  120.0  0.0
140  70.0  120.0  0.0
141  80.0  120.0  0.0
142  90.0  120.0  0.0
143  100.0  120.0  0.0
144  0.0  130.0  0.0
145  10.0  130.0  0.0
146  20.0  130.0  0.0
147  30.0  130.0  0.0
148  40.0  130.0  0.0
149  50.0  130.0  0.0
150  60.0  130.0  0.0
151  70.0  130.0  0.0
152  80.0  130.0  0.0
153  90.0  130.0  0.0
154  100.0  130.0  0.0
155  0.0  140.0  0.0
156  10.0  140.0  0.0
157  20.0  140.0  0.0
158  30.0  140.0  0.0
159  40.0  140.0  0.0
160  50.0  140.0  0.0
161  60.0  140.0  0.0
162  70.0  140.0  0.0
163  80.0  140.0  0.0
164  90.0  140.0  0.0
165  100.0  140.0  0.0
166  0.0  150.0  0.0
167  10.0  150.0  0.0
168  20.0  150.0  0.0
169  30.0  150.0  0.0
170  40.0  150.0  0.0
171  50.0  150.0  0.0
172  60.0  150.0  0.0
173  70.0  150.0  0.0
174  80.0  150.0  0.0
175  90.0  150.0  0.0
176  100.0  150.0  0.0
177  0.0  160.0  0.0
178  10.0  160.0  0.0
179  20.0  160.0  0.0
180  30.0  160.0  0.0
181  40.0  160.0  0.0
182  50.0  160.0  0.0
183  60.0  160.0  0.0
184  70.0  160.0  0.0
185  80.0  160.0  0.0
186  90.0  160.0  0.0
187  100.0  160.0  0.0
188  0.0  170.0  0.0
189  10.0  170.0  0.0
190  20.0  170.0  0.0
191  30.0  170.0  0.0
192  40.0  170.0  0.0
193  50.0  170.0  0.0
194  60.0  170.0  0.0
195  70.0  170.0  0.0
196  80.0  170.0  0.0
197  90.0  170.0  0.0
198  100.0  170.0  0.0
199  0.0  180.0  0.0
200  10.0  180.0  0.0
201  20.0  180.0  0.0
202  30.0  180.0  0.0
203  40.0  180.0  0.0
204  50.0  180.0  0.0
205  60.0  180.0  0.0
206  70.0  180.0  0.0
207  80.0  180.0  0.0
208  90.0  180.0  0.0
209  100.0  180.0  0.0
210  0.0  190.0  0.0
211  10.0  190.0  0.0
212  20.0  190.0  0.0
213  30.0  190.0  0.0
214  40.0  190.0  0.0
215  50.0  190.0  0.0
216  60.0  190.0  0.0
217  70.0  190.0  0.0
218  80.0  190.0  0.0
219  90.0  190.0  0.0
220  100.0  190.0  0.0
221  0.0  200.0  0.0
222  10.0  200.0  0.0
223  20.0  200.0  0.0
224  30.0  200.0  0.0
225  40.0  200.0  0.0
226  50.0  200.0  0.0
227  60.0  200.0  0.0
228  70.0  200.0  0.0
229  80.0  200.0  0.0
230  90.0  200.0  0.0
231  100.0  200.0  0.0
232  0.0  210.0  0.0
233  10.0  210.0  0.0
234  20.0  210.0  0.0
235  30.0  210.0  0.0
236  40.0  210.0  0.0
237  50.0  210.0  0.0
238  60.0  210.0  0.0
239  70.0  210.0  0.0
240  80.0  210.0  0.0
241  90.0  210.0  0.0
242  100.0  210.0  0.0
243  0.0  220.0  0.0
244  10.0  220.0  0.0
245  20.0  220.0  0.0
246  30.0  220.0  0.0
247  40.0  220.0  0.0
248  50.0  220.0  0.0
249  60.0  220.0  0.0
250  70.0  220.0  0.0
251  80.0  220.0  0.0
252  90.0  220.0  0.0
253  100.0  220.0  0.0
254  0.0  230.0  0.0
255  10.0  230.0  0.0
256  20.0  230.0  0.0
257  30.0  230.0  0.0
258  40.0  230.0  0.0
259  50.0  230.0  0.0
260  60.0  230.0  0.0
261  70.0  230.0  0.0
262  80.0  230.0  0.0
263  90.0  230.0  0.0
264  100.0  230.0  0.0
265  0.0  240.0  0.0
266  10.0  240.0  0.0
267  20.0  240.0  0.0
268  30.0  240.0  0.0
269  40.0  240.0  0.0
270  50.0  240.0  0.0
271  60.0  240.0  0.0
272  70.0  240.0  0.0
273  80.0  240.0  0.0
274  90.0  240.0  0.0
275  100.0  240.0  0.0
276  0.0  250.0  0.0
277  10.0  250.0  0.0
278  20.0  250.0  0.0
279  30.0  250.0  0.0
280  40.0  250.0  0.0
281  50.0  250.0  0.0
282  60.0  250.0  0.0
283  70.0  250.0  0.0
284  80.0  250.0  0.0
285  90.0  250.0  0.0
286  100.0  250.0  0.0
287  0.0  260.0  0.0
288  10.0  260.0  0.0
289  20.0  260.0  0.0
290  30.0  260.0  0.0
291  40.0  260.0  0.0
292  50.0  260.0  0.0
293  60.0  260.0  0.0
294  70.0  260.0  0.0
295  80.0  260.0  0.0
296  90.0  260.0  0.0
297  100.0  260.0  0.0
298  0.0  270.0  0.0
299  10.0  270.0  0.0
300  20.0  270.0  0.0
301  30.0  270.0  0.0
302  40.0  270.0  0.0
303  50.0  270.0  0.0
304  60.0  270.0  0.0
305  70.0  270.0  0.0
306  80.0  270.0  0.0
307  90.0  270.0  0.0
308  100.0  270.0  0.0
309  0.0  280.0  0.0
310  10.0  280.0  0.0
311  20.0  280.0  0.0
312  30.0  280.0  0.0
313  40.0  280.0  0.0
314  50.0  280.0  0.0
315  60.0  280.0  0.0
316  70.0  280.0  0.0
317  80.0  280.0  0.0
318  90.0  280.0  0.0
319  100.0  280.0  0.0
320  0.0  290.0  0.0
321  10.0  290.0  0.0
322  20.0  290.0  0.0
323  30.0  290.0  0.0
324  40.0  290.0  0.0
325  50.0  290.0  0.0
326  60.0  290.0  0.0
327  70.0  290.0  0.0
328  80.0  290.0  0.0
329  90.0  290.0  0.0
330  100.0  290.0  0.0
331  0.0  300.0  0.0
332  10.0  300.0  0.0
333  20.0  300.0  0.0
334  30.0  300.0  0.0
335  40.0  300.0  0.0
336  50.0  300.0  0.0
337  60.0  300.0  0.0
338  70.0  300.0  0.0
339  80.0  300.0  0.0
340  90.0  300.0  0.0
341  100.0  300.0  0.0
342  0.0  310.0  0.0
343  10.0  310.0  0.0
344  20.0  310.0  0.0
345  30.0  310.0  0.0
346  40.0  310.0  0.0
347  50.0  310.0  0.0
348  60.0  310.0  0.0
349  70.0  310.0  0.0
350  80.0  310.0  0.0
351  90.0  310.0  0.0
352  100.0  310.0  0.0
353  0.0  320.0  0.0
354  10.0  320.0  0.0
355  20.0  320.0  0.0
356  30.0  320.0  0.0
357  40.0  320.0  0.0
358  50.0  320.0  0.0
359  60.0  320.0  0.0
360  70.0  320.0  0.0
361  80.0  320.0  0.0
362  90.0  320.0  0.0
363  100.0  320.0  0.0
364  0.0  330.0  0.0
365  10.0  330.0  0.0
366  20.0  330.0  0.0
367  30.0  330.0  0.0
368  40.0  330.0  0.0
369  50.0  330.0  0.0
370  60.0  330.0  0.0
371  70.0  330.0  0.0
372  80.0  330.0  0.0
373  90.0  330.0  0.0
374  100.0  330.0  0.0
375  0.0  340.0  0.0
376  10.0  340.0  0.0
377  20.0  340.0  0.0
378  30.0  340.0  0.0
379  40.0  340.0  0.0
380  50.0  340.0  0.0
381  60.0  340.0  0.0
382  70.0  340.0  0.0
383  80.0  340.0  0.0
384  90.0  340.0  0.0
385  100.0  340.0  0.0
386  0.0  350.0  0.0
387  10.0  350.0  0.0
388  20.0  350.0  0.0
389  30.0  350.0  0.0
390  40.0  350.0  0.0
391  50.0  350.0  0.0
392  60.0  350.0  0.0
393  70.0  350.0  0.0
394  80.0  350.0  0.0
395  90.0  350.0  0.0
396  100.0  350.0  0.0
397  0.0  360.0  0.0
398  10.0  360.0  0.0
399  20.0  360.0  0.0
400  30.0  360.0  0.0
401  40.0  360.0  0.0
402  50.0  360.0  0.0
403  60.0  360.0  0.0
404  70.0  360.0  0.0
405  80.0  360.0  0.0
406  90.0  360.0  0.0
407  100.0  360.0  0.0
408  0.0  370.0  0.0
409  10.0  370.0  0.0
410  20.0  370.0  0.0
411  30.0  370.0  0.0
412  40.0  370.0  0.0
413  50.0  370.0  0.0
414  60.0  370.0  0.0
415  70.0  370.0  0.0
416  80.0  370.0  0.0
417  90.0  370.0  0.0
418  100.0  370.0  0.0
419  0.0  380.0  0.0
420  10.0  380.0  0.0
421  20.0  380.0  0.0
422  30.0  380.0  0.0
423  40.0  380.0  0.0
424  50.0  380.0  0.0
425  60.0  380.0  0.0
426  70.0  380.0  0.0
427  80.0  380.0  0.0
428  90.0  380.0  0.0
429  100.0  380.0  0.0
430  0.0  390.0  0.0
431  10.0  390.0  0.0
432  20.0  390.0  0.0
433  30.0  390.0  0.0
434  40.0  390.0  0.0
435  50.0  390.0  0.0
436  60.0  390.0  0.0
437  70.0  390.0  0.0
438  80.0  390.0  0.0
439  90.0  390.0  0.0
440  100.0  390.0  0.0
441  0.0  400.0  0.0
442  10.0  400.0  0.0
443  20.0  400.0  0.0
444  30.0  400.0  0.0
445  40.0  400.0  0.0
446  50.0  400.0  0.0
447  60.0  400.0  0.0
448  70.0  400.0  0.0
449  80.0  400.0  0.0
450  90.0  400.0  0.0
451  100.0  400.0  0.0
452  0.0  410.0  0.0
453  10.0  410.0  0.0
454  20.0  410.0  0.0
455  30.0  410.0  0.0
456  40.0  410.0  0.0
457  50.0  410.0  0.0
458  60.0  410.0  0.0
459  70.0  410.0  0.0
460  80.0  410.0  0.0
461  90.0  410.0  0.0
462  100.0  410.0  0.0
463  0.0  420.0  0.0
464  10.0  420.0  0.0
465  20.0  420.0  0.0
466  30.0  420.0  0.0
467  40.0  420.0  0.0
468  50.0  420.0  0.0
469  60.0  420.0  0.0
470  70.0  420.0  0.0
471  80.0  420.0  0.0
472  90.0  420.0  0.0
473  100.0  420.0  0.0
474  0.0  430.0  0.0
475  10.0  430.0  0.0
476  20.0  430.0  0.0
477  30.0  430.0  0.0
478  40.0  430.0  0.0
479  50.0  430.0  0.0
480  60.0  430.0  0.0
481  70.0  430.0  0.0
482  80.0  430.0  0.0
483  90.0  430.0  0.0
484  100.0  430.0  0.0
485  0.0  440.0  0.0
486  10.0  440.0  0.0
487  20.0  440.0  0.0
488  30.0  440.0  0.0
489  40.0  440.0  0.0
490  50.0  440.0  0.0
491  60.0  440.0  0.0
492  70.0  440.0  0.0
493  80.0  440.0  0.0
494  90.0  440.0  0.0
495  100.0  440.0  0.0
496  0.0  450.0  0.0
497  10.0  450.0  0.0
498  20.0  450.0  0.0
499  30.0  450.0  0.0
500  40.0  450.0  0.0
501  50.0  450.0  0.0
502  60.0  450.0  0.0
503  70.0  450.0  0.0
504  80.0  450.0  0.0
505  90.0  450.0  0.0
506  100.0  450.0  0.0
507  0.0  460.0  0.0
508  10.0  460.0  0.0
509  20.0  460.0  0.0
510  30.0  460.0  0.0
511  40.0  460.0  0.0
512  50.0  460.0  0.0
513  60.0  460.0  0.0
514  70.0  460.0  0.0
515  80.0  460.0  0.0
516  90.0  460.0  0.0
517  100.0  460.0  0.0
518  0.0  470.0  0.0
519  10.0  470.0  0.0
520  20.0  470.0  0.0
521  30.0  470.0  0.0
522  40.0  470.0  0.0
523  50.0  470.0  0.0
524  60.0  470.0  0.0
525  70.0  470.0  0.0
526  80.0  470.0  0.0
527  90.0  470.0  0.0
528  100.0  470.0  0.0
529  0.0  480.0  0.0
530  10.0  480.0  0.0
531  20.0  480.0  0.0
532  30.0  480.0  0.0
533  40.0  480.0  0.0
534  50.0  480.0  0.0
535  60.0  480.0  0.0
536  70.0  480.0  0.0
537  80.0  480.0  0.0
538  90.0  480.0  0.0
539  100.0  480.0  0.0
540  0.0  490.0  0.0
541  10.0  490.0  0.0
542  20.0  490.0  0.0
543  30.0  490.0  0.0
544  40.0  490.0  0.0
545  50.0  490.0  0.0
546  60.0  490.0  0.0
547  70.0  490.0  0.0
548  80.0  490.0  0.0
549  90.0  490.0  0.0
550  100.0  490.0  0.0
551  0.0  500.0  0.0
552  10.0  500.0  0.0
553  20.0  500.0  0.0
554  30.0  500.0  0.0
555  40.0  500.0  0.0
556  50.0  500.0  0.0
557  60.0  500.0  0.0
558  70.0  500.0  0.0
559  80.0  500.0  0.0
560  90.0  500.0  0.0
561  100.0  500.0  0.0
562  0.0  510.0  0.0
563  10.0  510.0  0.0
564  20.0  510.0  0.0
565  30.0  510.0  0.0
566  40.0  510.0  0.0
567  50.0  510.0  0.0
568  60.0  510.0  0.0
569  70.0  510.0  0.0
570  80.0  510.0  0.0
571  90.0  510.0  0.0
572  100.0  510.0  0.0
573  0.0  520.0  0.0
574  10.0  520.0  0.0
575  20.0  520.0  0.0
576  30.0  520.0  0.0
577  40.0  520.0  0.0
578  50.0  520.0  0.0
579  60.0  520.0  0.0
580  70.0  520.0  0.0
581  80.0  520.0  0.0
582  90.0  520.0  0.0
583  100.0  520.0  0.0
584  0.0  530.0  0.0
585  10.0  530.0  0.0
586  20.0  530.0  0.0
587  30.0  530.0  0.0
588  40.0  530.0  0.0
589  50.0  530.0  0.0
590  60.0  530.0  0.0
591  70.0  530.0  0.0
592  80.0  530.0  0.0
593  90.0  530.0  0.0
594  100.0  530.0  0.0
595  0.0  540.0  0.0
596  10.0  540.0  0.0
597  20.0  540.0  0.0
598  30.0  540.0  0.0
599  40.0  540.0  0.0
600  50.0  540.0  0.0
601  60.0  540.0  0.0
602  70.0  540.0  0.0
603  80.0  540.0  0.0
604  90.0  540.0  0.0
605  100.0  540.0  0.0
606  0.0  550.0  0.0
607  10.0  550.0  0.0
608  20.0  550.0  0.0
609  30.0  550.0  0.0
610  40.0  550.0  0.0
611  50.0  550.0  0.0
612  60.0  550.0  0.0
613  70.0  550.0  0.0
614  80.0  550.0  0.0
615  90.0  550.0  0.0
616  100.0  550.0  0.0
617  0.0  560.0  0.0
618  10.0  560.0  0.0
619  20.0  560.0  0.0
620  30.0  560.0  0.0
621  40.0  560.0  0.0
622  50.0  560.0  0.0
623  60.0  560.0  0.0
624  70.0  560.0  0.0
625  80.0  560.0  0.0
626  90.0  560.0  0.0
627  100.0  560.0  0.0
628  0.0  570.0  0.0
629  10.0  570.0  0.0
630  20.0  570.0  0.0
631  30.0  570.0  0.0
632  40.0  570.0  0.0
633  50.0  570.0  0.0
634  60.0  570.0  0.0
635  70.0  570.0  0.0
636  80.0  570.0  0.0
637  90.0  570.0  0.0
638  100.0  570.0  0.0
639  0.0  580.0  0.0
640  10.0  580.0  0.0
641  20.0  580.0  0.0
642  30.0  580.0  0.0
643  40.0  580.0  0.0
644  50.0  580.0  0.0
645  60.0  580.0  0.0
646  70.0  580.0  0.0
647  80.0  580.0  0.0
648  90.0  580.0  0.0
649  100.0  580.0  0.0
650  0.0  590.0  0.0
651  10.0  590.0  0.0
652  20.0  590.0  0.0
653  30.0  590.0  0.0
654  40.0  590.0  0.0
655  50.0  590.0  0.0
656  60.0  590.0  0.0
657  70.0  590.0  0.0
658  80.0  590.0  0.0
659  90.0  590.0  0.0
660  100.0  590.0  0.0
661  0.0  600.0  0.0
662  10.0  600.0  0.0
663  20.0  600.0  0.0
664  30.0  600.0  0.0
665  40.0  600.0  0.0
666  50.0  600.0  0.0
667  60.0  600.0  0.0
668  70.0  600.0  0.0
669  80.0  600.0  0.0
670  90.0  600.0  0.0
671  100.0  600.0  0.0
672  0.0  610.0  0.0
673  10.0  610.0  0.0
674  20.0  610.0  0.0
675  30.0  610.0  0.0
676  40.0  610.0  0.0
677  50.0  610.0  0.0
678  60.0  610.0  0.0
679  70.0  610.0  0.0
680  80.0  610.0  0.0
681  90.0  610.0  0.0
682  100.0  610.0  0.0
683  0.0  620.0  0.0
684  10.0  620.0  0.0
685  20.0  620.0  0.0
686  30.0  620.0  0.0
687  40.0  620.0  0.0
688  50.0  620.0  0.0
689  60.0  620.0  0.0
690  70.0  620.0  0.0
691  80.0  620.0  0.0
692  90.0  620.0  0.0
693  100.0  620.0  0.0
694  0.0  630.0  0.0
695  10.0  630.0  0.0
696  20.0  630.0  0.0
697  30.0  630.0  0.0
698  40.0  630.0  0.0
699  50.0  630.0  0.0
700  60.0  630.0  0.0
701  70.0  630.0  0.0
702  80.0  630.0  0.0
703  90.0  630.0  0.0
704  100.0  630.0  0.0
705  0.0  640.0  0.0
706  10.0  640.0  0.0
707  20.0  640.0  0.0
708  30.0  640.0  0.0
709  40.0  640.0  0.0
710  50.0  640.0  0.0
711  60.0  640.0  0.0
712  70.0  640.0  0.0
713  80.0  640.0  0.0
714  90.0  640.0  0.0
715  100.0  640.0  0.0
716  0.0  650.0  0.0
717  10.0  650.0  0.0
718  20.0  650.0  0.0
719  30.0  650.0  0.0
720  40.0  650.0  0.0
721  50.0  650.0  0.0
722  60.0  650.0  0.0
723  70.0  650.0  0.0
724  80.0  650.0  0.0
725  90.0  650.0  0.0
726  100.0  650.0  0.0
727  0.0  660.0  0.0
728  10.0  660.0  0.0
729  20.0  660.0  0.0
730  30.0  660.0  0.0
731  40.0  660.0  0.0
732  50.0  660.0  0.0
733  60.0  660.0  0.0
734  70.0  660.0  0.0
735  80.0  660.0  0.0
736  90.0  660.0  0.0
737  100.0  660.0  0.0
738  0.0  670.0  0.0
739  10.0  670.0  0.0
740  20.0  670.0  0.0
741  30.0  670.0  0.0
742  40.0  670.0  0.0
743  50.0  670.0  0.0
744  60.0  670.0  0.0
745  70.0  670.0  0.0
746  80.0  670.0  0.0
747  90.0  670.0  0.0
748  100.0  670.0  0.0
749  0.0  680.0  0.0
750  10.0  680.0  0.0
751  20.0  680.0  0.0
752  30.0  680.0  0.0
753  40.0  680.0  0.0
754  50.0  680.0  0.0
755  60.0  680.0  0.0
756  70.0  680.0  0.0
757  80.0  680.0  0.0
758  90.0  680.0  0.0
759  100.0  680.0  0.0
760  0.0  690.0  0.0
761  10.0  690.0  0.0
762  20.0  690.0  0.0
763  30.0  690.0  0.0
764  40.0  690.0  0.0
765  50.0  690.0  0.0
766  60.0  690.0  0.0
767  70.0  690.0  0.0
768  80.0  690.0  0.0
769  90.0  690.0  0.0
770  100.0  690.0  0.0
771  0.0  700.0  0.0
772  10.0  700.0  0.0
773  20.0  700.0  0.0
774  30.0  700.0  0.0
775  40.0  700.0  0.0
776  50.0  700.0  0.0
777  60.0  700.0  0.0
778  70.0  700.0  0.0
779  80.0  700.0  0.0
780  90.0  700.0  0.0
781  100.0  700.0  0.0
782  0.0  710.0  0.0
783  10.0  710.0  0.0
784  20.0  710.0  0.0
785  30.0  710.0  0.0
786  40.0  710.0  0.0
787  50.0  710.0  0.0
788  60.0  710.0  0.0
789  70.0  710.0  0.0
790  80.0  710.0  0.0
791  90.0  710.0  0.0
792  100.0  710.0  0.0
793  0.0  720.0  0.0
794  10.0  720.0  0.0
795  20.0  720.0  0.0
796  30.0  720.0  0.0
797  40.0  720.0  0.0
798  50.0  720.0  0.0
799  60.0  720.0  0.0
800  70.0  720.0  0.0
801  80.0  720.0  0.0
802  90.0  720.0  0.0
803  100.0  720.0  0.0
804  0.0  730.0  0.0
805  10.0  730.0  0.0
806  20.0  730.0  0.0
807  30.0  730.0  0.0
808  40.0  730.0  0.0
809  50.0  730.0  0.0
810  60.0  730.0  0.0
811  70.0  730.0  0.0
812  80.0  730.0  0.0
813  90.0  730.0  0.0
814  100.0  730.0  0.0
815  0.0  740.0  0.0
816  10.0  740.0  0.0
817  20.0  740.0  0.0
818  30.0  740.0  0.0
819  40.0  740.0  0.0
820  50.0  740.0  0.0
821  60.0  740.0  0.0
822  70.0  740.0  0.0
823  80.0  740.0  0.0
824  90.0  740.0  0.0
825  100.0  740.0  0.0
826  0.0  750.0  0.0
827  10.0  750.0  0.0
828  20.0  750.0  0.0
829  30.0  750.0  0.0
830  40.0  750.0  0.0
831  50.0  750.0  0.0
832  60.0  750.0  0.0
833  70.0  750.0  0.0
834  80.0  750.0  0.0
835  90.0  750.0  0.0
836  100.0  750.0  0.0
837  0.0  760.0  0.0
838  10.0  760.0  0.0
839  20.0  760.0  0.0
840  30.0  760.0  0.0
841  40.0  760.0  0.0
842  50.0  760.0  0.0
843  60.0  760.0  0.0
844  70.0  760.0  0.0
845  80.0  760.0  0.0
846  90.0  760.0  0.0
847  100.0  760.0  0.0
848  0.0  770.0  0.0
849  10.0  770.0  0.0
850  20.0  770.0  0.0
851  30.0  770.0  0.0
852  40.0  770.0  0.0
853  50.0  770.0  0.0
854  60.0  770.0  0.0
855  70.0  770.0  0.0
856  80.0  770.0  0.0
857  90.0  770.0  0.0
858  100.0  770.0  0.0
859  0.0  780.0  0.0
860  10.0  780.0  0.0
861  20.0  780.0  0.0
862  30.0  780.0  0.0
863  40.0  780.0  0.0
864  50.0  780.0  0.0
865  60.0  780.0  0.0
866  70.0  780.0  0.0
867  80.0  780.0  0.0
868  90.0  780.0  0.0
869  100.0  780.0  0.0
870  0.0  790.0  0.0
871  10.0  790.0  0.0
872  20.0  790.0  0.0
873  30.0  790.0  0.0
874  40.0  790.0  0.0
875  50.0  790.0  0.0
876  60.0  790.0  0.0
877  70.0  790.0  0.0
878  80.0  790.0  0.0
879  90.0  790.0  0.0
880  100.0  790.0  0.0
881  0.0  800.0  0.0
882  10.0  800.0  0.0
883  20.0  800.0  0.0
884  30.0  800.0  0.0
885  40.0  800.0  0.0
886  50.0  800.0  0.0
887  60.0  800.0  0.0
888  70.0  800.0  0.0
889  80.0  800.0  0.0
890  90.0  800.0  0.0
891  100.0  800.0  0.0
892  0.0  810.0  0.0
893  10.0  810.0  0.0
894  20.0  810.0  0.0
895  30.0  810.0  0.0
896  40.0  810.0  0.0
897  50.0  810.0  0.0
898  60.0  810.0  0.0
899  70.0  810.0  0.0
900  80.0  810.0  0.0
901  90.0  810.0  0.0
902  100.0  810.0  0.0
903  0.0  820.0  0.0
904  10.0  820.0  0.0
905  20.0  820.0  0.0
906  30.0  820.0  0.0
907  40.0  820.0  0.0
908  50.0  820.0  0.0
909  60.0  820.0  0.0
910  70.0  820.0  0.0
911  80.0  820.0  0.0
912  90.0  820.0  0.0
913  100.0  820.0  0.0
914  0.0  830.0  0.0
915  10.0  830.0  0.0
916  20.0  830.0  0.0
917  30.0  830.0  0.0
918  40.0  830.0  0.0
919  50.0  830.0  0.0
920  60.0  830.0  0.0
921  70.0  830.0  0.0
922  80.0  830.0  0.0
923  90.0  830.0  0.0
924  100.0  830.0  0.0
925  0.0  840.0  0.0
926  10.0  840.0  0.0
927  20.0  840.0  0.0
928  30.0  840.0  0.0
929  40.0  840.0  0.0
930  50.0  840.0  0.0
931  60.0  840.0  0.0
932  70.0  840.0  0.0
933  80.0  840.0  0.0
934  90.0  840.0  0.0
935  100.0  840.0  0.0
936  0.0  850.0  0.0
937  10.0  850.0  0.0
938  20.0  850.0  0.0
939  30.0  850.0  0.0
940  40.0  850.0  0.0
941  50.0  850.0  0.0
942  60.0  850.0  0.0
943  70.0  850.0  0.0
944  80.0  850.0  0.0
945  90.0  850.0  0.0
946  100.0  850.0  0.0
947  0.0  860.0  0.0
948  10.0  860.0  0.0
949  20.0  860.0  0.0
950  30.0  860.0  0.0
951  40.0  860.0  0.0
952  50.0  860.0  0.0
953  60.0  860.0  0.0
954  70.0  860.0  0.0
955  80.0  860.0  0.0
956  90.0  860.0  0.0
957  100.0  860.0  0.0
958  0.0  870.0  0.0
959  10.0  870.0  0.0
960  20.0  870.0  0.0
961  30.0  870.0  0.0
962  40.0  870.0  0.0
963  50.0  870.0  0.0
964  60.0  870.0  0.0
965  70.0  870.0  0.0
966  80.0  870.0  0.0
967  90.0  870.0  0.0
968  100.0  870.0  0.0
969  0.0  880.0  0.0
970  10.0  880.0  0.0
971  20.0  880.0  0.0
972  30.0  880.0  0.0
973  40.0  880.0  0.0
974  50.0  880.0  0.0
975  60.0  880.0  0.0
976  70.0  880.0  0.0
977  80.0  880.0  0.0
978  90.0  880.0  0.0
979  100.0  880.0  0.0
980  0.0  890.0  0.0
981  10.0  890.0  0.0
982  20.0  890.0  0.0
983  30.0  890.0  0.0
984  40.0  890.0  0.0
985  50.0  890.0  0.0
986  60.0  890.0  0.0
987  70.0  890.0  0.0
988  80.0  890.0  0.0
989  90.0  890.0  0.0
990  100.0  890.0  0.0
991  0.0  900.0  0.0
992  10.0  900.0  0.0
993  20.0  900.0  0.0
994  30.0  900.0  0.0
995  40.0  900.0  0.0
996  50.0  900.0  0.0
997  60.0  900.0  0.0
998  70.0  900.0  0.0
999  80.0  900.0  0.0
1000  90.0  900.0  0.0
1001  100.0  900.0  0.0

[1D Elements]
#ElemNr  ElemType  NrOfNodes  Level
#Node1 Node2 ... NodeNrOfNodes

[2D Elements]
#ElemNr  ElemType  NrOfNodes  Level
#Node1 Node2 ... NodeNrOfNodes
1 6 4 mech
1 2 13 12
2 6 4 mech
2 3 14 13
3 6 4 mech
3 4 15 14
4 6 4 mech
4 5 16 15
5 6 4 mech
5 6 17 16
6 6 4 mech
6 7 18 17
7 6 4 mech
7 8 19 18
8 6 4 mech
8 9 20 19
9 6 4 mech
9 10 21 20
10 6 4 mech
10 11 22 21
11 6 4 mech
12 13 24 23
12 6 4 mech
13 14 25 24
13 6 4 mech
14 15 26 25
14 6 4 mech
15 16 27 26
15 6 4 mech
16 17 28 27
16 6 4 mech
17 18 29 28
17 6 4 mech
18 19 30 29
18 6 4 mech
19 20 31 30
19 6 4 mech
20 21 32 31
20 6 4 mech
21 22 33 32
21 6 4 mech
23 24 35 34
22 6 4 mech
24 25 36 35
23 6 4 mech
25 26 37 36
24 6 4 mech
26 27 38 37
25 6 4 mech
27 28 39 38
26 6 4 mech
28 29 40 39
27 6 4 mech
29 30 41 40
28 6 4 mech
30 31 42 41
29 6 4 mech
31 32 43 42
30 6 4 mech
32 33 44 43
31 6 4 mech
34 35 46 45
32 6 4 mech
35 36 47 46
33 6 4 mech
36 37 48 47
34 6 4 mech
37 38 49 48
35 6 4 mech
38 39 50 49
36 6 4 mech
39 40 51 50
37 6 4 mech
40 41 52 51
38 6 4 mech
41 42 53 52
39 6 4 mech
42 43 54 53
40 6 4 mech
43 44 55 54
41 6 4 mech
45 46 57 56
42 6 4 mech
46 47 58 57
43 6 4 mech
47 48 59 58
44 6 4 mech
48 49 60 59
45 6 4 mech
49 50 61 60
46 6 4 mech
50 51 62 61
47 6 4 mech
51 52 63 62
48 6 4 mech
52 53 64 63
49 6 4 mech
53 54 65 64
50 6 4 mech
54 55 66 65
51 6 4 mech
56 57 68 67
52 6 4 mech
57 58 69 68
53 6 4 mech
58 59 70 69
54 6 4 mech
59 60 71 70
55 6 4 mech
60 61 72 71
56 6 4 mech
61 62 73 72
57 6 4 mech
62 63 74 73
58 6 4 mech
63 64 75 74
59 6 4 mech
64 65 76 75
60 6 4 mech
65 66 77 76
61 6 4 mech
67 68 79 78
62 6 4 mech
68 69 80 79
63 6 4 mech
69 70 81 80
64 6 4 mech
70 71 82 81
65 6 4 mech
71 72 83 82
66 6 4 mech
72 73 84 83
67 6 4 mech
73 74 85 84
68 6 4 mech
74 75 86 85
69 6 4 mech
75 76 87 86
70 6 4 mech
76 77 88 87
71 6 4 mech
78 79 90 89
72 6 4 mech
79 80 91 90
73 6 4 mech
80 81 92 91
74 6 4 mech
81 82 93 92
75 6 4 mech
82 83 94 93
76 6 4 mech
83 84 95 94
77 6 4 mech
84 85 96 95
78 6 4 mech
85 86 97 96
79 6 4 mech
86 87 98 97
80 6 4 mech
87 88 99 98
81 6 4 mech
89 90 101 100
82 6 4 mech
90 91 102 101
83 6 4 mech
91 92 103 102
84 6 4 mech
92 93 104 103
85 6 4 mech
93 94 105 104
86 6 4 mech
94 95 106 105
87 6 4 mech
95 96 107 106
88 6 4 mech
96 97 108 107
89 6 4 mech
97 98 109 108
90 6 4 mech
98 99 110 109
91 6 4 mech
100 101 112 111
92 6 4 mech
101 102 113 112
93 6 4 mech
102 103 114 113
94 6 4 mech
103 104 115 114
95 6 4 mech
104 105 116 115
96 6 4 mech
105 106 117 116
97 6 4 mech
106 107 118 117
98 6 4 mech
107 108 119 118
99 6 4 mech
108 109 120 119
100 6 4 mech
109 110 121 120
101 6 4 mech
111 112 123 122
102 6 4 mech
112 113 124 123
103 6 4 mech
113 114 125 124
104 6 4 mech
114 115 126 125
105 6 4 mech
115 116 127 126
106 6 4 mech
116 117 128 127
107 6 4 mech
117 118 129 128
108 6 4 mech
118 119 130 129
109 6 4 mech
119 120 131 130
110 6 4 mech
120 121 132 131
111 6 4 mech
122 123 134 133
112 6 4 mech
123 124 135 134
113 6 4 mech
124 125 136 135
114 6 4 mech
125 126 137 136
115 6 4 mech
126 127 138 137
116 6 4 mech
127 128 139 138
117 6 4 mech
128 129 140 139
118 6 4 mech
129 130 141 140
119 6 4 mech
130 131 142 141
120 6 4 mech
131 132 143 142
121 6 4 mech
133 134 145 144
122 6 4 mech
134 135 146 145
123 6 4 mech
135 136 147 146
124 6 4 mech
136 137 148 147
125 6 4 mech
137 138 149 148
126 6 4 mech
138 139 150 149
127 6 4 mech
139 140 151 150
128 6 4 mech
140 141 152 151
129 6 4 mech
141 142 153 152
130 6 4 mech
142 143 154 153
131 6 4 mech
144 145 156 155
132 6 4 mech
145 146 157 156
133 6 4 mech
146 147 158 157
134 6 4 mech
147 148 159 158
135 6 4 mech
148 149 160 159
136 6 4 mech
149 150 161 160
137 6 4 mech
150 151 162 161
138 6 4 mech
151 152 163 162
139 6 4 mech
152 153 164 163
140 6 4 mech
153 154 165 164
141 6 4 mech
155 156 167 166
142 6 4 mech
156 157 168 167
143 6 4 mech
157 158 169 168
144 6 4 mech
158 159 170 169
145 6 4 mech
159 160 171 170
146 6 4 mech
160 161 172 171
147 6 4 mech
161 162 173 172
148 6 4 mech
162 163 174 173
149 6 4 mech
163 164 175 174
150 6 4 mech
164 165 176 175
151 6 4 mech
166 167 178 177
152 6 4 mech
167 168 179 178
153 6 4 mech
168 169 180 179
154 6 4 mech
169 170 181 180
155 6 4 mech
170 171 182 181
156 6 4 mech
171 172 183 182
157 6 4 mech
172 173 184 183
158 6 4 mech
173 174 185 184
159 6 4 mech
174 175 186 185
160 6 4 mech
175 176 187 186
161 6 4 mech
177 178 189 188
162 6 4 mech
178 179 190 189
163 6 4 mech
179 180 191 190
164 6 4 mech
180 181 192 191
165 6 4 mech
181 182 193 192
166 6 4 mech
182 183 194 193
167 6 4 mech
183 184 195 194
168 6 4 mech
184 185 196 195
169 6 4 mech
185 186 197 196
170 6 4 mech
186 187 198 197
171 6 4 mech
188 189 200 199
172 6 4 mech
189 190 201 200
173 6 4 mech
190 191 202 201
174 6 4 mech
191 192 203 202
175 6 4 mech
192 193 204 203
176 6 4 mech
193 194 205 204
177 6 4 mech
194 195 206 205
178 6 4 mech
195 196 207 206
179 6 4 mech
196 197 208 207
180 6 4 mech
197 198 209 208
181 6 4 mech
199 200 211 210
182 6 4 mech
200 201 212 211
183 6 4 mech
201 202 213 212
184 6 4 mech
202 203 214 213
185 6 4 mech
203 204 215 214
186 6 4 mech
204 205 216 215
187 6 4 mech
205 206 217 216
188 6 4 mech
206 207 218 217
189 6 4 mech
207 208 219 218
190 6 4 mech
208 209 220 219
191 6 4 mech
210 211 222 221
192 6 4 mech
211 212 223 222
193 6 4 mech
212 213 224 223
194 6 4 mech
213 214 225 224
195 6 4 mech
214 215 226 225
196 6 4 mech
215 216 227 226
197 6 4 mech
216 217 228 227
198 6 4 mech
217 218 229 228
199 6 4 mech
218 219 230 229
200 6 4 mech
219 220 231 230
201 6 4 mech
221 222 233 232
202 6 4 mech
222 223 234 233
203 6 4 mech
223 224 235 234
204 6 4 mech
224 225 236 235
205 6 4 mech
225 226 237 236
206 6 4 mech
226 227 238 237
207 6 4 mech
227 228 239 238
208 6 4 mech
228 229 240 239
209 6 4 mech
229 230 241 240
210 6 4 mech
230 231 242 241
211 6 4 mech
232 233 244 243
212 6 4 mech
233 234 245 244
213 6 4 mech
234 235 246 245
214 6 4 mech
235 236 247 246
215 6 4 mech
236 237 248 247
216 6 4 mech
237 238 249 248
217 6 4 mech
238 239 250 249
218 6 4 mech
239 240 251 250
219 6 4 mech
240 241 252 251
220 6 4 mech
241 242 253 252
221 6 4 mech
243 244 255 254
222 6 4 mech
244 245 256 255
223 6 4 mech
245 246 257 256
224 6 4 mech
246 247 258 257
225 6 4 mech
247 248 259 258
226 6 4 mech
248 249 260 259
227 6 4 mech
249 250 261 260
228 6 4 mech
250 251 262 261
229 6 4 mech
251 252 263 262
230 6 4 mech
252 253 264 263
231 6 4 mech
254 255 266 265
232 6 4 mech
255 256 267 266
233 6 4 mech
256 257 268 267
234 6 4 mech
257 258 269 268
235 6 4 mech
258 259 270 269
236 6 4 mech
259 260 271 270
237 6 4 mech
260 261 272 271
238 6 4 mech
261 262 273 272
239 6 4 mech
262 263 274 273
240 6 4 mech
263 264 275 274
241 6 4 mech
265 266 277 276
242 6 4 mech
266 267 278 277
243 6 4 mech
267 268 279 278
244 6 4 mech
268 269 280 279
245 6 4 mech
269 270 281 280
246 6 4 mech
270 271 282 281
247 6 4 mech
271 272 283 282
248 6 4 mech
272 273 284 283
249 6 4 mech
273 274 285 284
250 6 4 mech
274 275 286 285
251 6 4 mech
276 277 288 287
252 6 4 mech
277 278 289 288
253 6 4 mech
278 279 290 289
254 6 4 mech
279 280 291 290
255 6 4 mech
280 281 292 291
256 6 4 mech
281 282 293 292
257 6 4 mech
282 283 294 293
258 6 4 mech
283 284 295 294
259 6 4 mech
284 285 296 295
260 6 4 mech
285 286 297 296
261 6 4 mech
287 288 299 298
262 6 4 mech
288 289 300 299
263 6 4 mech
289 290 301 300
264 6 4 mech
290 291 302 301
265 6 4 mech
291 292 303 302
266 6 4 mech
292 293 304 303
267 6 4 mech
293 294 305 304
268 6 4 mech
294 295 306 305
269 6 4 mech
295 296 307 306
270 6 4 mech
296 297 308 307
271 6 4 mech
298 299 310 309
272 6 4 mech
299 300 311 310
273 6 4 mech
300 301 312 311
274 6 4 mech
301 302 313 312
275 6 4 mech
302 303 314 313
276 6 4 mech
303 304 315 314
277 6 4 mech
304 305 316 315
278 6 4 mech
305 306 317 316
279 6 4 mech
306 307 318 317
280 6 4 mech
307 308 319 318
281 6 4 mech
309 310 321 320
282 6 4 mech
310 311 322 321
283 6 4 mech
311 312 323 322
284 6 4 mech
312 313 324 323
285 6 4 mech
313 314 325 324
286 6 4 mech
314 315 326 325
287 6 4 mech
315 316 327 326
288 6 4 mech
316 317 328 327
289 6 4 mech
317 318 329 328
290 6 4 mech
318 319 330 329
291 6 4 mech
320 321 332 331
292 6 4 mech
321 322 333 332
293 6 4 mech
322 323 334 333
294 6 4 mech
323 324 335 334
295 6 4 mech
324 325 336 335
296 6 4 mech
325 326 337 336
297 6 4 mech
326 327 338 337
298 6 4 mech
327 328 339 338
299 6 4 mech
328 329 340 339
300 6 4 mech
329 330 341 340
301 6 4 mech
331 332 343 342
302 6 4 mech
332 333 344 343
303 6 4 mech
333 334 345 344
304 6 4 mech
334 335 346 345
305 6 4 mech
335 336 347 346
306 6 4 mech
336 337 348 347
307 6 4 mech
337 338 349 348
308 6 4 mech
338 339 350 349
309 6 4 mech
339 340 351 350
310 6 4 mech
340 341 352 351
311 6 4 mech
342 343 354 353
312 6 4 mech
343 344 355 354
313 6 4 mech
344 345 356 355
314 6 4 mech
345 346 357 356
315 6 4 mech
346 347 358 357
316 6 4 mech
347 348 359 358
317 6 4 mech
348 349 360 359
318 6 4 mech
349 350 361 360
319 6 4 mech
350 351 362 361
320 6 4 mech
351 352 363 362
321 6 4 mech
353 354 365 364
322 6 4 mech
354 355 366 365
323 6 4 mech
355 356 367 366
324 6 4 mech
356 357 368 367
325 6 4 mech
357 358 369 368
326 6 4 mech
358 359 370 369
327 6 4 mech
359 360 371 370
328 6 4 mech
360 361 372 371
329 6 4 mech
361 362 373 372
330 6 4 mech
362 363 374 373
331 6 4 mech
364 365 376 375
332 6 4 mech
365 366 377 376
333 6 4 mech
366 367 378 377
334 6 4 mech
367 368 379 378
335 6 4 mech
368 369 380 379
336 6 4 mech
369 370 381 380
337 6 4 mech
370 371 382 381
338 6 4 mech
371 372 383 382
339 6 4 mech
372 373 384 383
340 6 4 mech
373 374 385 384
341 6 4 mech
375 376 387 386
342 6 4 mech
376 377 388 387
343 6 4 mech
377 378 389 388
344 6 4 mech
378 379 390 389
345 6 4 mech
379 380 391 390
346 6 4 mech
380 381 392 391
347 6 4 mech
381 382 393 392
348 6 4 mech
382 383 394 393
349 6 4 mech
383 384 395 394
350 6 4 mech
384 385 396 395
351 6 4 mech
386 387 398 397
352 6 4 mech
387 388 399 398
353 6 4 mech
388 389 400 399
354 6 4 mech
389 390 401 400
355 6 4 mech
390 391 402 401
356 6 4 mech
391 392 403 402
357 6 4 mech
392 393 404 403
358 6 4 mech
393 394 405 404
359 6 4 mech
394 395 406 405
360 6 4 mech
395 396 407 406
361 6 4 mech
397 398 409 408
362 6 4 mech
398 399 410 409
363 6 4 mech
399 400 411 410
364 6 4 mech
400 401 412 411
365 6 4 mech
401 402 413 412
366 6 4 mech
402 403 414 413
367 6 4 mech
403 404 415 414
368 6 4 mech
404 405 416 415
369 6 4 mech
405 406 417 416
370 6 4 mech
406 407 418 417
371 6 4 mech
408 409 420 419
372 6 4 mech
409 410 421 420
373 6 4 mech
410 411 422 421
374 6 4 mech
411 412 423 422
375 6 4 mech
412 413 424 423
376 6 4 mech
413 414 425 424
377 6 4 mech
414 415 426 425
378 6 4 mech
415 416 427 426
379 6 4 mech
416 417 428 427
380 6 4 mech
417 418 429 428
381 6 4 mech
419 420 431 430
382 6 4 mech
420 421 432 431
383 6 4 mech
421 422 433 432
384 6 4 mech
422 423 434 433
385 6 4 mech
423 424 435 434
386 6 4 mech
424 425 436 435
387 6 4 mech
425 426 437 436
388 6 4 mech
426 427 438 437
389 6 4 mech
427 428 439 438
390 6 4 mech
428 429 440 439
391 6 4 mech
430 431 442 441
392 6 4 mech
431 432 443 442
393 6 4 mech
432 433 444 443
394 6 4 mech
433 434 445 444
395 6 4 mech
434 435 446 445
396 6 4 mech
435 436 447 446
397 6 4 mech
436 437 448 447
398 6 4 mech
437 438 449 448
399 6 4 mech
438 439 450 449
400 6 4 mech
439 440 451 450
401 6 4 mech
441 442 453 452
402 6 4 mech
442 443 454 453
403 6 4 mech
443 444 455 454
404 6 4 mech
444 445 456 455
405 6 4 mech
445 446 457 456
406 6 4 mech
446 447 458 457
407 6 4 mech
447 448 459 458
408 6 4 mech
448 449 460 459
409 6 4 mech
449 450 461 460
410 6 4 mech
450 451 462 461
411 6 4 mech
452 453 464 463
412 6 4 mech
453 454 465 464
413 6 4 mech
454 455 466 465
414 6 4 mech
455 456 467 466
415 6 4 mech
456 457 468 467
416 6 4 mech
457 458 469 468
417 6 4 mech
458 459 470 469
418 6 4 mech
459 460 471 470
419 6 4 mech
460 461 472 471
420 6 4 mech
461 462 473 472
421 6 4 mech
463 464 475 474
422 6 4 mech
464 465 476 475
423 6 4 mech
465 466 477 476
424 6 4 mech
466 467 478 477
425 6 4 mech
467 468 479 478
426 6 4 mech
468 469 480 479
427 6 4 mech
469 470 481 480
428 6 4 mech
470 471 482 481
429 6 4 mech
471 472 483 482
430 6 4 mech
472 473 484 483
431 6 4 mech
474 475 486 485
432 6 4 mech
475 476 487 486
433 6 4 mech
476 477 488 487
434 6 4 mech
477 478 489 488
435 6 4 mech
478 479 490 489
436 6 4 mech
479 480 491 490
437 6 4 mech
480 481 492 491
438 6 4 mech
481 482 493 492
439 6 4 mech
482 483 494 493
440 6 4 mech
483 484 495 494
441 6 4 mech
485 486 497 496
442 6 4 mech
486 487 498 497
443 6 4 mech
487 488 499 498
444 6 4 mech
488 489 500 499
445 6 4 mech
489 490 501 500
446 6 4 mech
490 491 502 501
447 6 4 mech
491 492 503 502
448 6 4 mech
492 493 504 503
449 6 4 mech
493 494 505 504
450 6 4 mech
494 495 506 505
451 6 4 mech
496 497 508 507
452 6 4 mech
497 498 509 508
453 6 4 mech
498 499 510 509
454 6 4 mech
499 500 511 510
455 6 4 mech
500 501 512 511
456 6 4 mech
501 502 513 512
457 6 4 mech
502 503 514 513
458 6 4 mech
503 504 515 514
459 6 4 mech
504 505 516 515
460 6 4 mech
505 506 517 516
461 6 4 mech
507 508 519 518
462 6 4 mech
508 509 520 519
463 6 4 mech
509 510 521 520
464 6 4 mech
510 511 522 521
465 6 4 mech
511 512 523 522
466 6 4 mech
512 513 524 523
467 6 4 mech
513 514 525 524
468 6 4 mech
514 515 526 525
469 6 4 mech
515 516 527 526
470 6 4 mech
516 517 528 527
471 6 4 mech
518 519 530 529
472 6 4 mech
519 520 531 530
473 6 4 mech
520 521 532 531
474 6 4 mech
521 522 533 532
475 6 4 mech
522 523 534 533
476 6 4 mech
523 524 535 534
477 6 4 mech
524 525 536 535
478 6 4 mech
525 526 537 536
479 6 4 mech
526 527 538 537
480 6 4 mech
527 528 539 538
481 6 4 mech
529 530 541 540
482 6 4 mech
530 531 542 541
483 6 4 mech
531 532 543 542
484 6 4 mech
532 533 544 543
485 6 4 mech
533 534 545 544
486 6 4 mech
534 535 546 545
487 6 4 mech
535 536 547 546
488 6 4 mech
536 537 548 547
489 6 4 mech
537 538 549 548
490 6 4 mech
538 539 550 549
491 6 4 mech
540 541 552 551
492 6 4 mech
541 542 553 552
493 6 4 mech
542 543 554 553
494 6 4 mech
543 544 555 554
495 6 4 mech
544 545 556 555
496 6 4 mech
545 546 557 556
497 6 4 mech
546 547 558 557
498 6 4 mech
547 548 559 558
499 6 4 mech
548 549 560 559
500 6 4 mech
549 550 561 560
501 6 4 mech
551 552 563 562
502 6 4 mech
552 553 564 563
503 6 4 mech
553 554 565 564
504 6 4 mech
554 555 566 565
505 6 4 mech
555 556 567 566
506 6 4 mech
556 557 568 567
507 6 4 mech
557 558 569 568
508 6 4 mech
558 559 570 569
509 6 4 mech
559 560 571 570
510 6 4 mech
560 561 572 571
511 6 4 mech
562 563 574 573
512 6 4 mech
563 564 575 574
513 6 4 mech
564 565 576 575
514 6 4 mech
565 566 577 576
515 6 4 mech
566 567 578 577
516 6 4 mech
567 568 579 578
517 6 4 mech
568 569 580 579
518 6 4 mech
569 570 581 580
519 6 4 mech
570 571 582 581
520 6 4 mech
571 572 583 582
521 6 4 mech
573 574 585 584
522 6 4 mech
574 575 586 585
523 6 4 mech
575 576 587 586
524 6 4 mech
576 577 588 587
525 6 4 mech
577 578 589 588
526 6 4 mech
578 579 590 589
527 6 4 mech
579 580 591 590
528 6 4 mech
580 581 592 591
529 6 4 mech
581 582 593 592
530 6 4 mech
582 583 594 593
531 6 4 mech
584 585 596 595
532 6 4 mech
585 586 597 596
533 6 4 mech
586 587 598 597
534 6 4 mech
587 588 599 598
535 6 4 mech
588 589 600 599
536 6 4 mech
589 590 601 600
537 6 4 mech
590 591 602 601
538 6 4 mech
591 592 603 602
539 6 4 mech
592 593 604 603
540 6 4 mech
593 594 605 604
541 6 4 mech
595 596 607 606
542 6 4 mech
596 597 608 607
543 6 4 mech
597 598 609 608
544 6 4 mech
598 599 610 609
545 6 4 mech
599 600 611 610
546 6 4 mech
600 601 612 611
547 6 4 mech
601 602 613 612
548 6 4 mech
602 603 614 613
549 6 4 mech
603 604 615 614
550 6 4 mech
604 605 616 615
551 6 4 mech
606 607 618 617
552 6 4 mech
607 608 619 618
553 6 4 mech
608 609 620 619
554 6 4 mech
609 610 621 620
555 6 4 mech
610 611 622 621
556 6 4 mech
611 612 623 622
557 6 4 mech
612 613 624 623
558 6 4 mech
613 614 625 624
559 6 4 mech
614 615 626 625
560 6 4 mech
615 616 627 626
561 6 4 mech
617 618 629 628
562 6 4 mech
618 619 630 629
563 6 4 mech
619 620 631 630
564 6 4 mech
620 621 632 631
565 6 4 mech
621 622 633 632
566 6 4 mech
622 623 634 633
567 6 4 mech
623 624 635 634
568 6 4 mech
624 625 636 635
569 6 4 mech
625 626 637 636
570 6 4 mech
626 627 638 637
571 6 4 mech
628 629 640 639
572 6 4 mech
629 630 641 640
573 6 4 mech
630 631 642 641
574 6 4 mech
631 632 643 642
575 6 4 mech
632 633 644 643
576 6 4 mech
633 634 645 644
577 6 4 mech
634 635 646 645
578 6 4 mech
635 636 647 646
579 6 4 mech
636 637 648 647
580 6 4 mech
637 638 649 648
581 6 4 mech
639 640 651 650
582 6 4 mech
640 641 652 651
583 6 4 mech
641 642 653 652
584 6 4 mech
642 643 654 653
585 6 4 mech
643 644 655 654
586 6 4 mech
644 645 656 655
587 6 4 mech
645 646 657 656
588 6 4 mech
646 647 658 657
589 6 4 mech
647 648 659 658
590 6 4 mech
648 649 660 659
591 6 4 mech
650 651 662 661
592 6 4 mech
651 652 663 662
593 6 4 mech
652 653 664 663
594 6 4 mech
653 654 665 664
595 6 4 mech
654 655 666 665
596 6 4 mech
655 656 667 666
597 6 4 mech
656 657 668 667
598 6 4 mech
657 658 669 668
599 6 4 mech
658 659 670 669
600 6 4 mech
659 660 671 670
601 6 4 mech
661 662 673 672
602 6 4 mech
662 663 674 673
603 6 4 mech
663 664 675 674
604 6 4 mech
664 665 676 675
605 6 4 mech
665 666 677 676
606 6 4 mech
666 667 678 677
607 6 4 mech
667 668 679 678
608 6 4 mech
668 669 680 679
609 6 4 mech
669 670 681 680
610 6 4 mech
670 671 682 681
611 6 4 mech
672 673 684 683
612 6 4 mech
673 674 685 684
613 6 4 mech
674 675 686 685
614 6 4 mech
675 676 687 686
615 6 4 mech
676 677 688 687
616 6 4 mech
677 678 689 688
617 6 4 mech
678 679 690 689
618 6 4 mech
679 680 691 690
619 6 4 mech
680 681 692 691
620 6 4 mech
681 682 693 692
621 6 4 mech
683 684 695 694
622 6 4 mech
684 685 696 695
623 6 4 mech
685 686 697 696
624 6 4 mech
686 687 698 697
625 6 4 mech
687 688 699 698
626 6 4 mech
688 689 700 699
627 6 4 mech
689 690 701 700
628 6 4 mech
690 691 702 701
629 6 4 mech
691 692 703 702
630 6 4 mech
692 693 704 703
631 6 4 mech
694 695 706 705
632 6 4 mech
695 696 707 706
633 6 4 mech
696 697 708 707
634 6 4 mech
697 698 709 708
635 6 4 mech
698 699 710 709
636 6 4 mech
699 700 711 710
637 6 4 mech
700 701 712 711
638 6 4 mech
701 702 713 712
639 6 4 mech
702 703 714 713
640 6 4 mech
703 704 715 714
641 6 4 mech
705 706 717 716
642 6 4 mech
706 707 718 717
643 6 4 mech
707 708 719 718
644 6 4 mech
708 709 720 719
645 6 4 mech
709 710 721 720
646 6 4 mech
710 711 722 721
647 6 4 mech
711 712 723 722
648 6 4 mech
712 713 724 723
649 6 4 mech
713 714 725 724
650 6 4 mech
714 715 726 725
651 6 4 mech
716 717 728 727
652 6 4 mech
717 718 729 728
653 6 4 mech
718 719 730 729
654 6 4 mech
719 720 731 730
655 6 4 mech
720 721 732 731
656 6 4 mech
721 722 733 732
657 6 4 mech
722 723 734 733
658 6 4 mech
723 724 735 734
659 6 4 mech
724 725 736 735
660 6 4 mech
725 726 737 736
661 6 4 mech
727 728 739 738
662 6 4 mech
728 729 740 739
663 6 4 mech
729 730 741 740
664 6 4 mech
730 731 742 741
665 6 4 mech
731 732 743 742
666 6 4 mech
732 733 744 743
667 6 4 mech
733 734 745 744
668 6 4 mech
734 735 746 745
669 6 4 mech
735 736 747 746
670 6 4 mech
736 737 748 747
671 6 4 mech
738 739 750 749
672 6 4 mech
739 740 751 750
673 6 4 mech
740 741 752 751
674 6 4 mech
741 742 753 752
675 6 4 mech
742 743 754 753
676 6 4 mech
743 744 755 754
677 6 4 mech
744 745 756 755
678 6 4 mech
745 746 757 756
679 6 4 mech
746 747 758 757
680 6 4 mech
747 748 759 758
681 6 4 mech
749 750 761 760
682 6 4 mech
750 751 762 761
683 6 4 mech
751 752 763 762
684 6 4 mech
752 753 764 763
685 6 4 mech
753 754 765 764
686 6 4 mech
754 755 766 765
687 6 4 mech
755 756 767 766
688 6 4 mech
756 757 768 767
689 6 4 mech
757 758 769 768
690 6 4 mech
758 759 770 769
691 6 4 mech
760 761 772 771
692 6 4 mech
761 762 773 772
693 6 4 mech
762 763 774 773
694 6 4 mech
763 764 775 774
695 6 4 mech
764 765 776 775
696 6 4 mech
765 766 777 776
697 6 4 mech
766 767 778 777
698 6 4 mech
767 768 779 778
699 6 4 mech
768 769 780 779
700 6 4 mech
769 770 781 780
701 6 4 mech
771 772 783 782
702 6 4 mech
772 773 784 783
703 6 4 mech
773 774 785 784
704 6 4 mech
774 775 786 785
705 6 4 mech
775 776 787 786
706 6 4 mech
776 777 788 787
707 6 4 mech
777 778 789 788
708 6 4 mech
778 779 790 789
709 6 4 mech
779 780 791 790
710 6 4 mech
780 781 792 791
711 6 4 mech
782 783 794 793
712 6 4 mech
783 784 795 794
713 6 4 mech
784 785 796 795
714 6 4 mech
785 786 797 796
715 6 4 mech
786 787 798 797
716 6 4 mech
787 788 799 798
717 6 4 mech
788 789 800 799
718 6 4 mech
789 790 801 800
719 6 4 mech
790 791 802 801
720 6 4 mech
791 792 803 802
721 6 4 mech
793 794 805 804
722 6 4 mech
794 795 806 805
723 6 4 mech
795 796 807 806
724 6 4 mech
796 797 808 807
725 6 4 mech
797 798 809 808
726 6 4 mech
798 799 810 809
727 6 4 mech
799 800 811 810
728 6 4 mech
800 801 812 811
729 6 4 mech
801 802 813 812
730 6 4 mech
802 803 814 813
731 6 4 mech
804 805 816 815
732 6 4 mech
805 806 817 816
733 6 4 mech
806 807 818 817
734 6 4 mech
807 808 819 818
735 6 4 mech
808 809 820 819
736 6 4 mech
809 810 821 820
737 6 4 mech
810 811 822 821
738 6 4 mech
811 812 823 822
739 6 4 mech
812 813 824 823
740 6 4 mech
813 814 825 824
741 6 4 mech
815 816 827 826
742 6 4 mech
816 817 828 827
743 6 4 mech
817 818 829 828
744 6 4 mech
818 819 830 829
745 6 4 mech
819 820 831 830
746 6 4 mech
820 821 832 831
747 6 4 mech
821 822 833 832
748 6 4 mech
822 823 834 833
749 6 4 mech
823 824 835 834
750 6 4 mech
824 825 836 835
751 6 4 mech
826 827 838 837
752 6 4 mech
827 828 839 838
753 6 4 mech
828 829 840 839
754 6 4 mech
829 830 841 840
755 6 4 mech
830 831 842 841
756 6 4 mech
831 832 843 842
757 6 4 mech
832 833 844 843
758 6 4 mech
833 834 845 844
759 6 4 mech
834 835 846 845
760 6 4 mech
835 836 847 846
761 6 4 mech
837 838 849 848
762 6 4 mech
838 839 850 849
763 6 4 mech
839 840 851 850
764 6 4 mech
840 841 852 851
765 6 4 mech
841 842 853 852
766 6 4 mech
842 843 854 853
767 6 4 mech
843 844 855 854
768 6 4 mech
844 845 856 855
769 6 4 mech
845 846 857 856
770 6 4 mech
846 847 858 857
771 6 4 mech
848 849 860 859
772 6 4 mech
849 850 861 860
773 6 4 mech
850 851 862 861
774 6 4 mech
851 852 863 862
775 6 4 mech
852 853 864 863
776 6 4 mech
853 854 865 864
777 6 4 mech
854 855 866 865
778 6 4 mech
855 856 867 866
779 6 4 mech
856 857 868 867
780 6 4 mech
857 858 869 868
781 6 4 mech
859 860 871 870
782 6 4 mech
860 861 872 871
783 6 4 mech
861 862 873 872
784 6 4 mech
862 863 874 873
785 6 4 mech
863 864 875 874
786 6 4 mech
864 865 876 875
787 6 4 mech
865 866 877 876
788 6 4 mech
866 867 878 877
789 6 4 mech
867 868 879 878
790 6 4 mech
868 869 880 879
791 6 4 mech
870 871 882 881
792 6 4 mech
871 872 883 882
793 6 4 mech
872 873 884 883
794 6 4 mech
873 874 885 884
795 6 4 mech
874 875 886 885
796 6 4 mech
875 876 887 886
797 6 4 mech
876 877 888 887
798 6 4 mech
877 878 889 888
799 6 4 mech
878 879 890 889
800 6 4 mech
879 880 891 890
801 6 4 mech
881 882 893 892
802 6 4 mech
882 883 894 893
803 6 4 mech
883 884 895 894
804 6 4 mech
884 885 896 895
805 6 4 mech
885 886 897 896
806 6 4 mech
886 887 898 897
807 6 4 mech
887 888 899 898
808 6 4 mech
888 889 900 899
809 6 4 mech
889 890 901 900
810 6 4 mech
890 891 902 901
811 6 4 mech
892 893 904 903
812 6 4 mech
893 894 905 904
813 6 4 mech
894 895 906 905
814 6 4 mech
895 896 907 906
815 6 4 mech
896 897 908 907
816 6 4 mech
897 898 909 908
817 6 4 mech
898 899 910 909
818 6 4 mech
899 900 911 910
819 6 4 mech
900 901 912 911
820 6 4 mech
901 902 913 912
821 6 4 mech
903 904 915 914
822 6 4 mech
904 905 916 915
823 6 4 mech
905 906 917 916
824 6 4 mech
906 907 918 917
825 6 4 mech
907 908 919 918
826 6 4 mech
908 909 920 919
827 6 4 mech
909 910 921 920
828 6 4 mech
910 911 922 921
829 6 4 mech
911 912 923 922
830 6 4 mech
912 913 924 923
831 6 4 mech
914 915 926 925
832 6 4 mech
915 916 927 926
833 6 4 mech
916 917 928 927
834 6 4 mech
917 918 929 928
835 6 4 mech
918 919 930 929
836 6 4 mech
919 920 931 930
837 6 4 mech
920 921 932 931
838 6 4 mech
921 922 933 932
839 6 4 mech
922 923 934 933
840 6 4 mech
923 924 935 934
841 6 4 mech
925 926 937 936
842 6 4 mech
926 927 938 937
843 6 4 mech
927 928 939 938
844 6 4 mech
928 929 940 939
845 6 4 mech
929 930 941 940
846 6 4 mech
930 931 942 941
847 6 4 mech
931 932 943 942
848 6 4 mech
932 933 944 943
849 6 4 mech
933 934 945 944
850 6 4 mech
934 935 946 945
851 6 4 mech
936 937 948 947
852 6 4 mech
937 938 949 948
853 6 4 mech
938 939 950 949
854 6 4 mech
939 940 951 950
855 6 4 mech
940 941 952 951
856 6 4 mech
941 942 953 952
857 6 4 mech
942 943 954 953
858 6 4 mech
943 944 955 954
859 6 4 mech
944 945 956 955
860 6 4 mech
945 946 957 956
861 6 4 mech
947 948 959 958
862 6 4 mech
948 949 960 959
863 6 4 mech
949 950 961 960
864 6 4 mech
950 951 962 961
865 6 4 mech
951 952 963 962
866 6 4 mech
952 953 964 963
867 6 4 mech
953 954 965 964
868 6 4 mech
954 955 966 965
869 6 4 mech
955 956 967 966
870 6 4 mech
956 957 968 967
871 6 4 mech
958 959 970 969
872 6 4 mech
959 960 971 970
873 6 4 mech
960 961 972 971
874 6 4 mech
961 962 973 972
875 6 4 mech
962 963 974 973
876 6 4 mech
963 964 975 974
877 6 4 mech
964 965 976 975
878 6 4 mech
965 966 977 976
879 6 4 mech
966 967 978 977
880 6 4 mech
967 968 979 978
881 6 4 mech
969 970 981 980
882 6 4 mech
970 971 982 981
883 6 4 mech
971 972 983 982
884 6 4 mech
972 973 984 983
885 6 4 mech
973 974 985 984
886 6 4 mech
974 975 986 985
887 6 4 mech
975 976 987 986
888 6 4 mech
976 977 988 987
889 6 4 mech
977 978 989 988
890 6 4 mech
978 979 990 989
891 6 4 mech
980 981 992 991
892 6 4 mech
981 982 993 992
893 6 4 mech
982 983 994 993
894 6 4 mech
983 984 995 994
895 6 4 mech
984 985 996 995
896 6 4 mech
985 986 997 996
897 6 4 mech
986 987 998 997
898 6 4 mech
987 988 999 998
899 6 4 mech
988 989 1000 999
900 6 4 mech
989 990 1001 1000

[3D Elements]
#ElemNr  ElemType  NrOfNodes  Level
#Node1 Node2 ... NodeNrOfNodes

[Node BC]
#NodeNr Level
1 south
2 south
3 south
4 south
5 south
6 south
7 south
8 south
9 south
10 south
11 south
991 north
992 north
993 north
994 north
995 north
996 north
997 north
998 north
999 north
1000 north
1001 north
1 west
12 west
23 west
34 west
45 west
56 west
67 west
78 west
89 west
100 west
111 west
122 west
133 west
144 west
155 west
166 west
177 west
188 west
199 west
210 west
221 west
232 west
243 west
254 west
265 west
276 west
287 west
298 west
309 west
320 west
331 west
342 west
353 west
364 west
375 west
386 west
397 west
408 west
419 west
430 west
441 west
452 west
463 west
474 west
485 west
496 west
507 west
518 west
529 west
540 west
551 west
562 west
573 west
584 west
595 west
606 west
617 west
628 west
639 west
650 west
661 west
672 west
683 west
694 west
705 west
716 west
727 west
738 west
749 west
760 west
771 west
782 west
793 west
804 west
815 west
826 west
837 west
848 west
859 west
870 west
881 west
892 west
903 west
914 west
925 west
936 west
947 west
958 west
969 west
980 west
991 west
11 east
22 east
33 east
44 east
55 east
66 east
77 east
88 east
99 east
110 east
121 east
132 east
143 east
154 east
165 east
176 east
187 east
198 east
209 east
220 east
231 east
242 east
253 east
264 east
275 east
286 east
297 east
308 east
319 east
330 east
341 east
352 east
363 east
374 east
385 east
396 east
407 east
418 east
429 east
440 east
451 east
462 east
473 east
484 east
495 east
506 east
517 east
528 east
539 east
550 east
561 east
572 east
583 east
594 east
605 east
616 east
627 east
638 east
649 east
660 east
671 east
682 east
693 east
704 east
715 east
726 east
737 east
748 east
759 east
770 east
781 east
792 east
803 east
814 east
825 east
836 east
847 east
858 east
869 east
880 east
891 east
902 east
913 east
924 east
935 east
946 east
957 east
968 east
979 east
990 east
1001 east
1 south_west
11 south_east
991 north_west
1001 north_east

[Save Nodes]
#NodeNr Level

[Save Elements]
#ElemNr Level

 
