$MeshFormat
2.2 0 8
$EndMeshFormat
$PhysicalNames
5
1 1 "left"
1 2 "right"
1 3 "bottom"
1 4 "top"
2 5 "mat"
$EndPhysicalNames
$Nodes
65
1 -1 -1 0
2 1 -1 0
3 1 1 0
4 -1 1 0
5 -1 0.5635948847088419 0
6 -1 0.1748020993614462 0
7 -1 -0.1715728452327621 0
8 -1 -0.4801578645505826 0
9 -1 -0.7550758730400164 0
10 -0.7550758730412118 -1 0
11 -0.4801578645532648 -1 0
12 -0.171572845237279 -1 0
13 0.174802099356683 -1 0
14 0.5635948847061676 -1 0
15 1 -0.5635948847088419 0
16 1 -0.1748020993614462 0
17 1 0.1715728452327621 0
18 1 0.4801578645505826 0
19 1 0.7550758730400164 0
20 0.7550758730412118 1 0
21 0.4801578645532648 1 0
22 0.171572845237279 1 0
23 -0.174802099356683 1 0
24 -0.5635948847061676 1 0
25 -1.370003546722994e-13 7.984967229892333e-13 0
26 -0.4451136014450783 -0.4138753286585024 0
27 0.4156825445317063 0.4156825445320392 0
28 0.4480283715589765 -0.3865144816120304 0
29 -0.4480283715594684 0.3865144816121505 0
30 -0.001614627059702 0.5844981926534719 0
31 0.001614627059702 -0.5844981926536301 0
32 0.5979567852445529 0.03060076872570168 0
33 -0.5979567852447003 -0.03060076872574607 0
34 -0.6439723844740218 -0.6405014652757468 0
35 0.6422986077411124 0.6381706787440931 0
36 -0.3611079455461791 -0.7174203942451958 0
37 0.3611079455466434 0.7174203942453017 0
38 -0.7317303968815564 -0.3362315251905152 0
39 0.7317874605604159 0.3383236508880467 0
40 -0.3298809550084049 -0.143052055740212 0
41 0.3298809550084691 0.1430520557407097 0
42 -0.3292168835746266 0.6917930797552188 0
43 0.3341185083275254 -0.6693053717695062 0
44 0.1589059289267059 -0.3346637362277145 0
45 -0.1589059289271139 0.3346637362282212 0
46 0.6724700126159529 -0.6426926961662611 0
47 -0.6718141697564614 0.6445545769434899 0
48 -0.157819040653899 -0.3619946892045288 0
49 0.1545489232192641 0.3621954909687234 0
50 0.7084221478094711 -0.2565651453869418 0
51 -0.7077961540345883 0.2557788534646737 0
52 -0.8051185215742139 -0.8051185215739698 0
53 0.8051185215743455 0.8051185215741016 0
54 0.378257885709622 -0.1289231477714186 0
55 -0.3781883308460436 0.1288357820026397 0
56 0.8608367428798664 0.6176168687952994 0
57 -0.8608367428799557 -0.6176168687952996 0
58 0.6176168687972383 0.8608367428809033 0
59 -0.6176168687972383 -0.860836742880992 0
60 0.1046175170798243 0.807352866140414 0
61 -0.1046175170796614 -0.807352866140482 0
62 0.8349895324351498 -0.001614627064342069 0
63 -0.8349895324352332 0.001614627064342069 0
64 0.5257034740228675 0.2341398261255601 0
65 -0.5282141391223586 -0.237636005923039 0
$EndNodes
$Elements
128
1 1 2 1 1 4 5
2 1 2 1 1 5 6
3 1 2 1 1 6 7
4 1 2 1 1 7 8
5 1 2 1 1 8 9
6 1 2 1 1 9 1
7 1 2 3 2 1 10
8 1 2 3 2 10 11
9 1 2 3 2 11 12
10 1 2 3 2 12 13
11 1 2 3 2 13 14
12 1 2 3 2 14 2
13 1 2 2 3 2 15
14 1 2 2 3 15 16
15 1 2 2 3 16 17
16 1 2 2 3 17 18
17 1 2 2 3 18 19
18 1 2 2 3 19 3
19 1 2 4 4 3 20
20 1 2 4 4 20 21
21 1 2 4 4 21 22
22 1 2 4 4 22 23
23 1 2 4 4 23 24
24 1 2 4 4 24 4
25 2 2 5 8 26 36 48
26 2 2 5 8 27 37 49
27 2 2 5 8 31 48 36
28 2 2 5 8 30 49 37
29 2 2 5 8 23 30 60
30 2 2 5 8 13 31 61
31 2 2 5 8 30 37 60
32 2 2 5 8 31 36 61
33 2 2 5 8 31 43 44
34 2 2 5 8 42 45 30
35 2 2 5 8 23 42 30
36 2 2 5 8 13 43 31
37 2 2 5 8 26 34 36
38 2 2 5 8 27 35 37
39 2 2 5 8 26 38 34
40 2 2 5 8 27 39 35
41 2 2 5 8 28 44 43
42 2 2 5 8 29 45 42
43 2 2 5 8 2 46 14
44 2 2 5 8 4 47 24
45 2 2 5 8 25 54 41
46 2 2 5 8 25 55 40
47 2 2 5 8 25 44 54
48 2 2 5 8 25 45 55
49 2 2 5 8 2 15 46
50 2 2 5 8 4 5 47
51 2 2 5 8 17 18 39
52 2 2 5 8 7 8 38
53 2 2 5 8 21 22 37
54 2 2 5 8 11 12 36
55 2 2 5 8 25 40 48
56 2 2 5 8 25 41 49
57 2 2 5 8 17 39 62
58 2 2 5 8 7 38 63
59 2 2 5 8 39 32 62
60 2 2 5 8 33 63 38
61 2 2 5 8 25 48 44
62 2 2 5 8 25 49 45
63 2 2 5 8 5 51 47
64 2 2 5 8 15 50 46
65 2 2 5 8 6 51 5
66 2 2 5 8 15 16 50
67 2 2 5 8 39 64 32
68 2 2 5 8 33 38 65
69 2 2 5 8 23 60 22
70 2 2 5 8 13 61 12
71 2 2 5 8 23 24 42
72 2 2 5 8 13 14 43
73 2 2 5 8 34 59 36
74 2 2 5 8 37 35 58
75 2 2 5 8 34 38 57
76 2 2 5 8 39 56 35
77 2 2 5 8 14 46 43
78 2 2 5 8 42 24 47
79 2 2 5 8 10 52 1
80 2 2 5 8 9 1 52
81 2 2 5 8 3 20 53
82 2 2 5 8 19 3 53
83 2 2 5 8 29 47 51
84 2 2 5 8 28 46 50
85 2 2 5 8 11 36 59
86 2 2 5 8 21 37 58
87 2 2 5 8 8 57 38
88 2 2 5 8 39 18 56
89 2 2 5 8 22 60 37
90 2 2 5 8 12 61 36
91 2 2 5 8 40 26 48
92 2 2 5 8 27 49 41
93 2 2 5 8 29 42 47
94 2 2 5 8 28 43 46
95 2 2 5 8 40 65 26
96 2 2 5 8 27 41 64
97 2 2 5 8 50 32 54
98 2 2 5 8 51 33 55
99 2 2 5 8 30 45 49
100 2 2 5 8 31 44 48
101 2 2 5 8 7 63 6
102 2 2 5 8 16 17 62
103 2 2 5 8 8 9 57
104 2 2 5 8 19 56 18
105 2 2 5 8 11 59 10
106 2 2 5 8 21 58 20
107 2 2 5 8 28 50 54
108 2 2 5 8 29 51 55
109 2 2 5 8 40 33 65
110 2 2 5 8 41 32 64
111 2 2 5 8 26 65 38
112 2 2 5 8 27 64 39
113 2 2 5 8 41 54 32
114 2 2 5 8 40 55 33
115 2 2 5 8 28 54 44
116 2 2 5 8 29 55 45
117 2 2 5 8 50 62 32
118 2 2 5 8 51 63 33
119 2 2 5 8 16 62 50
120 2 2 5 8 6 63 51
121 2 2 5 8 19 53 56
122 2 2 5 8 9 52 57
123 2 2 5 8 20 58 53
124 2 2 5 8 10 59 52
125 2 2 5 8 52 34 57
126 2 2 5 8 53 35 56
127 2 2 5 8 52 59 34
128 2 2 5 8 53 58 35
$EndElements
