
0                         0
2.0000000000000003E-6     3.789484860482091E-7
4.000000000000001E-6      8.251913940963673E-7
6.0E-6                    1.3338304785534313E-6
8.000000000000001E-6      1.9000943673493592E-6
1.0E-5                    2.519337839656797E-6
1.2E-5                    3.187041021641264E-6
1.4000000000000001E-5     3.8988085068456286E-6
1.6000000000000003E-5     4.6503684076364875E-6
1.8000000000000004E-5     5.437571343962909E-6
2.0E-5                    6.2563893755027226E-6
2.2E-5                    7.102914883096961E-6
2.4E-5                    7.973359405200931E-6
2.6000000000000002E-5     8.864052434908307E-6
2.8000000000000003E-5     9.771440182936384E-6
3.0000000000000008E-5     1.0692084311792045E-5
3.2000000000000005E-5     1.162266064617249E-5
3.4000000000000007E-5     1.2559957864490427E-5
3.600000000000001E-5      1.3500876176250982E-5
3.8E-5                    1.4442425989846874E-5
4.0E-5                    1.538172657518148E-5
4.2E-5                    1.6316004725369518E-5
4.4E-5                    1.724259342161381E-5
4.6E-5                    1.815893050520068E-5
4.8E-5                    1.9062557360408042E-5
5.0E-5                    1.9951117611968778E-5
5.2000000000000004E-5     2.0822355840587107E-5
5.4000000000000005E-5     2.1674116319858076E-5
5.6000000000000006E-5     2.250434177779843E-5
5.800000000000001E-5      2.3311072186054247E-5
6.0000000000000015E-5     2.409244357971086E-5
6.200000000000002E-5      2.484668691049366E-5
6.400000000000001E-5      2.5572126936009886E-5
6.600000000000002E-5      2.626718114754659E-5
6.800000000000001E-5      2.6930358738808185E-5
7.0E-5                    2.756025961784485E-5
7.200000000000002E-5      2.8155573464290405E-5
7.4E-5                    2.8715078833901313E-5
7.6E-5                    2.9237642312261384E-5
7.800000000000001E-5      2.9722217719388163E-5
8.0E-5                    3.0167845366853485E-5
8.200000000000001E-5      3.057365136890533E-5
8.4E-5                    3.0938847008956416E-5
8.600000000000002E-5      3.126272816268337E-5
8.8E-5                    3.154467477885614E-5
9.000000000000002E-5      3.178415041890038E-5
9.2E-5                    3.198070185607362E-5
9.4E-5                    3.2133958735020415E-5
9.6E-5                    3.224363329234796E-5
9.8E-5                    3.230952013875134E-5
1.0E-4                    3.233149610309601E-5
