[Info]
Version 1
Dimension 3
NumNodes 64
Num3DElements 27
Num2DElements 0
Num1DElements 0
NumNodeBC 104
NumSaveNodes 0
NumSaveElements 0
Num 2d-line      : 0
Num 2d-line,quad : 0
Num 3d-line      : 0
Num 3d-line,quad : 0
Num triangle     : 0
Num triangle,quad: 0
Num quadr        : 0
Num quadr,quad   : 0
Num tetra        : 0
Num tetra,quad   : 0
Num brick        : 27
Num brick,quad   : 0
Num pyramid      : 0
Num pyramid,quad : 0
Num wedge        : 0
Num wedge,quad   : 0

[Nodes]
#NodeNr x-coord y-coord z-coord
1  0.0  0.0  0.0
2  0.333333333333  0.0  0.0
3  0.666666666667  0.0  0.0
4  1.0  0.0  0.0
5  0.0  0.333333333333  0.0
6  0.333333333333  0.333333333333  0.0
7  0.666666666667  0.333333333333  0.0
8  1.0  0.333333333333  0.0
9  0.0  0.666666666667  0.0
10  0.333333333333  0.666666666667  0.0
11  0.666666666667  0.666666666667  0.0
12  1.0  0.666666666667  0.0
13  0.0  1.0  0.0
14  0.333333333333  1.0  0.0
15  0.666666666667  1.0  0.0
16  1.0  1.0  0.0
17  0.0  0.0  0.333333333333
18  0.333333333333  0.0  0.333333333333
19  0.666666666667  0.0  0.333333333333
20  1.0  0.0  0.333333333333
21  0.0  0.333333333333  0.333333333333
22  0.333333333333  0.333333333333  0.333333333333
23  0.666666666667  0.333333333333  0.333333333333
24  1.0  0.333333333333  0.333333333333
25  0.0  0.666666666667  0.333333333333
26  0.333333333333  0.666666666667  0.333333333333
27  0.666666666667  0.666666666667  0.333333333333
28  1.0  0.666666666667  0.333333333333
29  0.0  1.0  0.333333333333
30  0.333333333333  1.0  0.333333333333
31  0.666666666667  1.0  0.333333333333
32  1.0  1.0  0.333333333333
33  0.0  0.0  0.666666666667
34  0.333333333333  0.0  0.666666666667
35  0.666666666667  0.0  0.666666666667
36  1.0  0.0  0.666666666667
37  0.0  0.333333333333  0.666666666667
38  0.333333333333  0.333333333333  0.666666666667
39  0.666666666667  0.333333333333  0.666666666667
40  1.0  0.333333333333  0.666666666667
41  0.0  0.666666666667  0.666666666667
42  0.333333333333  0.666666666667  0.666666666667
43  0.666666666667  0.666666666667  0.666666666667
44  1.0  0.666666666667  0.666666666667
45  0.0  1.0  0.666666666667
46  0.333333333333  1.0  0.666666666667
47  0.666666666667  1.0  0.666666666667
48  1.0  1.0  0.666666666667
49  0.0  0.0  1.0
50  0.333333333333  0.0  1.0
51  0.666666666667  0.0  1.0
52  1.0  0.0  1.0
53  0.0  0.333333333333  1.0
54  0.333333333333  0.333333333333  1.0
55  0.666666666667  0.333333333333  1.0
56  1.0  0.333333333333  1.0
57  0.0  0.666666666667  1.0
58  0.333333333333  0.666666666667  1.0
59  0.666666666667  0.666666666667  1.0
60  1.0  0.666666666667  1.0
61  0.0  1.0  1.0
62  0.333333333333  1.0  1.0
63  0.666666666667  1.0  1.0
64  1.0  1.0  1.0

[1D Elements]
#ElemNr  ElemType  NrOfNodes  Level
#Node1 Node2 ... NodeNrOfNodes

[2D Elements]
#ElemNr  ElemType  NrOfNodes  Level
#Node1 Node2 ... NodeNrOfNodes

[3D Elements]
#ElemNr  ElemType  NrOfNodes  Level
#Node1 Node2 ... NodeNrOfNodes
1 10 8 mech
5 6 22 21 1 2 18 17
2 10 8 mech
6 7 23 22 2 3 19 18
3 10 8 mech
7 8 24 23 3 4 20 19
4 10 8 mech
9 10 26 25 5 6 22 21
5 10 8 mech
10 11 27 26 6 7 23 22
6 10 8 mech
11 12 28 27 7 8 24 23
7 10 8 mech
13 14 30 29 9 10 26 25
8 10 8 mech
14 15 31 30 10 11 27 26
9 10 8 mech
15 16 32 31 11 12 28 27
10 10 8 mech
21 22 38 37 17 18 34 33
11 10 8 mech
22 23 39 38 18 19 35 34
12 10 8 mech
23 24 40 39 19 20 36 35
13 10 8 mech
25 26 42 41 21 22 38 37
14 10 8 mech
26 27 43 42 22 23 39 38
15 10 8 mech
27 28 44 43 23 24 40 39
16 10 8 mech
29 30 46 45 25 26 42 41
17 10 8 mech
30 31 47 46 26 27 43 42
18 10 8 mech
31 32 48 47 27 28 44 43
19 10 8 mech
37 38 54 53 33 34 50 49
20 10 8 mech
38 39 55 54 34 35 51 50
21 10 8 mech
39 40 56 55 35 36 52 51
22 10 8 mech
41 42 58 57 37 38 54 53
23 10 8 mech
42 43 59 58 38 39 55 54
24 10 8 mech
43 44 60 59 39 40 56 55
25 10 8 mech
45 46 62 61 41 42 58 57
26 10 8 mech
46 47 63 62 42 43 59 58
27 10 8 mech
47 48 64 63 43 44 60 59

[Node BC]
#NodeNr Level
1 left
5 left
9 left
13 left
17 left
21 left
25 left
29 left
33 left
37 left
41 left
45 left
49 left
53 left
57 left
61 left
4 right
8 right
12 right
16 right
20 right
24 right
28 right
32 right
36 right
40 right
44 right
48 right
52 right
56 right
60 right
64 right
1 bottom
2 bottom
3 bottom
4 bottom
17 bottom
18 bottom
19 bottom
20 bottom
33 bottom
34 bottom
35 bottom
36 bottom
49 bottom
50 bottom
51 bottom
52 bottom
13 top
14 top
15 top
16 top
29 top
30 top
31 top
32 top
45 top
46 top
47 top
48 top
61 top
62 top
63 top
64 top
1 back
2 back
3 back
4 back
5 back
6 back
7 back
8 back
9 back
10 back
11 back
12 back
13 back
14 back
15 back
16 back
49 front
50 front
51 front
52 front
53 front
54 front
55 front
56 front
57 front
58 front
59 front
60 front
61 front
62 front
63 front
64 front
1 left_bottom_back
4 right_bottom_back
13 left_top_back
16 right_top_back
49 left_bottom_front
52 right_bottom_front
61 left_top_front
64 right_top_front

[Save Nodes]
#NodeNr Level

[Save Elements]
#ElemNr Level

