$MeshFormat
2.2 0 8
$EndMeshFormat
$PhysicalNames
27
0 1 "NOB"
0 2 "NWB"
0 3 "SOB"
0 4 "SWB"
0 5 "NOT"
0 6 "NWT"
0 7 "SOT"
0 8 "SWT"
1 9 "NW"
1 10 "SW"
1 11 "SE"
1 12 "NO"
1 13 "NB"
1 14 "OB"
1 15 "SB"
1 16 "WB"
1 17 "NT"
1 18 "OT"
1 19 "ST"
1 20 "WT"
2 21 "N"
2 22 "O"
2 23 "S"
2 24 "W"
2 25 "B"
2 26 "T"
3 27 "SOLID"
$EndPhysicalNames
$Nodes
64
1 -0.5 -0.5 -0.5
2 0.5 -0.5 -0.5
3 0.5 0.5 -0.5
4 -0.5 0.5 -0.5
5 -0.5 -0.5 0.5
6 0.5 -0.5 0.5
7 0.5 0.5 0.5
8 -0.5 0.5 0.5
9 -0.1666666657414796 -0.5 -0.5
10 0.1666666675918538 -0.5 -0.5
11 0.5 -0.1666666657414796 -0.5
12 0.5 0.1666666675918538 -0.5
13 0.1666666657414796 0.5 -0.5
14 -0.1666666675918538 0.5 -0.5
15 -0.5 0.1666666657414796 -0.5
16 -0.5 -0.1666666675918538 -0.5
17 -0.1666666657414796 -0.5 0.5
18 0.1666666675918538 -0.5 0.5
19 0.5 -0.1666666657414796 0.5
20 0.5 0.1666666675918538 0.5
21 0.1666666657414796 0.5 0.5
22 -0.1666666675918538 0.5 0.5
23 -0.5 0.1666666657414796 0.5
24 -0.5 -0.1666666675918538 0.5
25 -0.5 -0.5 -0.1666666666666667
26 -0.5 -0.5 0.1666666666666666
27 0.5 -0.5 -0.1666666666666667
28 0.5 -0.5 0.1666666666666666
29 0.5 0.5 -0.1666666666666667
30 0.5 0.5 0.1666666666666666
31 -0.5 0.5 -0.1666666666666667
32 -0.5 0.5 0.1666666666666666
33 -0.166666666358271 -0.1666666669750624 -0.5
34 -0.1666666669750624 0.166666666358271 -0.5
35 0.1666666669750624 -0.166666666358271 -0.5
36 0.166666666358271 0.1666666669750624 -0.5
37 -0.1666666657414796 -0.5 -0.1666666666666667
38 -0.1666666657414796 -0.5 0.1666666666666666
39 0.1666666675918538 -0.5 -0.1666666666666667
40 0.1666666675918538 -0.5 0.1666666666666666
41 0.5 -0.1666666657414796 -0.1666666666666667
42 0.5 -0.1666666657414796 0.1666666666666666
43 0.5 0.1666666675918538 -0.1666666666666667
44 0.5 0.1666666675918538 0.1666666666666666
45 0.1666666657414796 0.5 -0.1666666666666667
46 0.1666666657414796 0.5 0.1666666666666666
47 -0.1666666675918538 0.5 -0.1666666666666667
48 -0.1666666675918538 0.5 0.1666666666666666
49 -0.5 0.1666666657414796 -0.1666666666666667
50 -0.5 0.1666666657414796 0.1666666666666666
51 -0.5 -0.1666666675918538 -0.1666666666666667
52 -0.5 -0.1666666675918538 0.1666666666666666
53 -0.166666666358271 -0.1666666669750624 0.5
54 -0.1666666669750624 0.166666666358271 0.5
55 0.1666666669750624 -0.166666666358271 0.5
56 0.166666666358271 0.1666666669750624 0.5
57 -0.166666666358271 -0.1666666669750624 -0.1666666666666667
58 -0.166666666358271 -0.1666666669750624 0.1666666666666666
59 -0.1666666669750624 0.166666666358271 -0.1666666666666667
60 -0.1666666669750624 0.166666666358271 0.1666666666666666
61 0.1666666669750624 -0.166666666358271 -0.1666666666666667
62 0.1666666669750624 -0.166666666358271 0.1666666666666666
63 0.166666666358271 0.1666666669750624 -0.1666666666666667
64 0.166666666358271 0.1666666669750624 0.1666666666666666
$EndNodes
$Elements
125
1 15 2 4 1 1
2 15 2 3 2 2
3 15 2 1 3 3
4 15 2 2 4 4
5 15 2 8 5 5
6 15 2 7 6 6
7 15 2 5 10 7
8 15 2 6 14 8
9 1 2 15 1 1 9
10 1 2 15 1 9 10
11 1 2 15 1 10 2
12 1 2 14 2 2 11
13 1 2 14 2 11 12
14 1 2 14 2 12 3
15 1 2 13 3 3 13
16 1 2 13 3 13 14
17 1 2 13 3 14 4
18 1 2 16 4 4 15
19 1 2 16 4 15 16
20 1 2 16 4 16 1
21 1 2 19 6 5 17
22 1 2 19 6 17 18
23 1 2 19 6 18 6
24 1 2 18 7 6 19
25 1 2 18 7 19 20
26 1 2 18 7 20 7
27 1 2 17 8 7 21
28 1 2 17 8 21 22
29 1 2 17 8 22 8
30 1 2 20 9 8 23
31 1 2 20 9 23 24
32 1 2 20 9 24 5
33 1 2 10 11 1 25
34 1 2 10 11 25 26
35 1 2 10 11 26 5
36 1 2 11 12 2 27
37 1 2 11 12 27 28
38 1 2 11 12 28 6
39 1 2 12 16 3 29
40 1 2 12 16 29 30
41 1 2 12 16 30 7
42 1 2 9 20 4 31
43 1 2 9 20 31 32
44 1 2 9 20 32 8
45 3 2 25 1 1 9 33 16
46 3 2 25 1 16 33 34 15
47 3 2 25 1 15 34 14 4
48 3 2 25 1 9 10 35 33
49 3 2 25 1 33 35 36 34
50 3 2 25 1 34 36 13 14
51 3 2 25 1 10 2 11 35
52 3 2 25 1 35 11 12 36
53 3 2 25 1 36 12 3 13
54 3 2 23 13 1 9 37 25
55 3 2 23 13 25 37 38 26
56 3 2 23 13 26 38 17 5
57 3 2 23 13 9 10 39 37
58 3 2 23 13 37 39 40 38
59 3 2 23 13 38 40 18 17
60 3 2 23 13 10 2 27 39
61 3 2 23 13 39 27 28 40
62 3 2 23 13 40 28 6 18
63 3 2 22 17 2 11 41 27
64 3 2 22 17 27 41 42 28
65 3 2 22 17 28 42 19 6
66 3 2 22 17 11 12 43 41
67 3 2 22 17 41 43 44 42
68 3 2 22 17 42 44 20 19
69 3 2 22 17 12 3 29 43
70 3 2 22 17 43 29 30 44
71 3 2 22 17 44 30 7 20
72 3 2 21 21 3 13 45 29
73 3 2 21 21 29 45 46 30
74 3 2 21 21 30 46 21 7
75 3 2 21 21 13 14 47 45
76 3 2 21 21 45 47 48 46
77 3 2 21 21 46 48 22 21
78 3 2 21 21 14 4 31 47
79 3 2 21 21 47 31 32 48
80 3 2 21 21 48 32 8 22
81 3 2 24 25 4 15 49 31
82 3 2 24 25 31 49 50 32
83 3 2 24 25 32 50 23 8
84 3 2 24 25 15 16 51 49
85 3 2 24 25 49 51 52 50
86 3 2 24 25 50 52 24 23
87 3 2 24 25 16 1 25 51
88 3 2 24 25 51 25 26 52
89 3 2 24 25 52 26 5 24
90 3 2 26 26 5 17 53 24
91 3 2 26 26 24 53 54 23
92 3 2 26 26 23 54 22 8
93 3 2 26 26 17 18 55 53
94 3 2 26 26 53 55 56 54
95 3 2 26 26 54 56 21 22
96 3 2 26 26 18 6 19 55
97 3 2 26 26 55 19 20 56
98 3 2 26 26 56 20 7 21
99 5 2 27 1 1 9 33 16 25 37 57 51
100 5 2 27 1 25 37 57 51 26 38 58 52
101 5 2 27 1 26 38 58 52 5 17 53 24
102 5 2 27 1 16 33 34 15 51 57 59 49
103 5 2 27 1 51 57 59 49 52 58 60 50
104 5 2 27 1 52 58 60 50 24 53 54 23
105 5 2 27 1 15 34 14 4 49 59 47 31
106 5 2 27 1 49 59 47 31 50 60 48 32
107 5 2 27 1 50 60 48 32 23 54 22 8
108 5 2 27 1 9 10 35 33 37 39 61 57
109 5 2 27 1 37 39 61 57 38 40 62 58
110 5 2 27 1 38 40 62 58 17 18 55 53
111 5 2 27 1 33 35 36 34 57 61 63 59
112 5 2 27 1 57 61 63 59 58 62 64 60
113 5 2 27 1 58 62 64 60 53 55 56 54
114 5 2 27 1 34 36 13 14 59 63 45 47
115 5 2 27 1 59 63 45 47 60 64 46 48
116 5 2 27 1 60 64 46 48 54 56 21 22
117 5 2 27 1 10 2 11 35 39 27 41 61
118 5 2 27 1 39 27 41 61 40 28 42 62
119 5 2 27 1 40 28 42 62 18 6 19 55
120 5 2 27 1 35 11 12 36 61 41 43 63
121 5 2 27 1 61 41 43 63 62 42 44 64
122 5 2 27 1 62 42 44 64 55 19 20 56
123 5 2 27 1 36 12 3 13 63 43 29 45
124 5 2 27 1 63 43 29 45 64 44 30 46
125 5 2 27 1 64 44 30 46 56 20 7 21
$EndElements
